{"event": {
  "events": [
    {
      "alternate": false,
      "description": "<p>What it says on the tin.<\/p>",
      "endTime": "2018-03-09T14:45-0800",
      "hashTag": "#75MinuteWritingWorkout",
      "id": "2018001",
      "location": "Salon C",
      "participants": [{
        "id": "30",
        "type": "participant"
      }],
      "sortKey": "5",
      "startTime": "2018-03-09T13:30-0800",
      "title": "75-Minute Writing Workout",
      "track": "",
      "type": "Panel"
    },
    {
      "alternate": false,
      "description": "<p>Bring your creative side to the game room and relax with some paper and art supplies. Stick figures, portraits, still life, or abstract--all skill levels welcome. Display your masterpiece for everyone else to appreciate!<\/p>",
      "endTime": "2018-03-09T16:15-0800",
      "hashTag": "#AmateurArt",
      "id": "2018002",
      "location": "Game Room",
      "participants": [
        {
          "id": "27",
          "type": "moderator"
        },
        {
          "id": "1",
          "type": "participant"
        }
      ],
      "sortKey": "10",
      "startTime": "2018-03-09T15:00-0800",
      "title": "Art! Amateur sketchfest",
      "track": "Event",
      "type": "Special"
    },
    {
      "alternate": false,
      "description": "<p>In past years there have been several panels on the basics of self-publishing. Every writing journey is different, however, and the same holds true for self-publishing. What are the particular obstacles you&#146;re facing? What is that lingering question about distribution or marketing that never gets addressed? Bring your journey to a panel of authors who have taken the plunge and ask their advice. Chances are they&#146;ve already tried something similar and have results to share. Even if you think you have it all figured out, remember that self-publishing is an ever-changing platform. Find out what&#146;s working (or not!) for authors today.<\/p>",
      "endTime": "2018-03-09T16:15-0800",
      "hashTag": "#SelfPublishingQABeyondtheBasics",
      "id": "2018003",
      "location": "Salon C",
      "participants": [
        {
          "id": "28",
          "type": "moderator"
        },
        {
          "id": "6",
          "type": "participant"
        },
        {
          "id": "49",
          "type": "participant"
        },
        {
          "id": "68",
          "type": "participant"
        }
      ],
      "sortKey": "15",
      "startTime": "2018-03-09T15:00-0800",
      "title": "Self-Publishing Q&A: Beyond the Basics",
      "track": "Panel",
      "type": "Panel"
    },
    {
      "alternate": false,
      "description": "<p>Among many other qualities, Shakespeare was a master of using plays within his plays to amplify his themes and plot arcs.  This technique of self-reference has been used for dramatic and comedic effect in many works. Orson Scott Card had Ender Wiggin playing through a story game that ultimately tied into and reflected his &quot;real life&quot; story; P.C. Hodgell has traditional stories in her novels that shadow the main action; Stephen King pulled the ultimate coup and wrote himself into his Dark Tower series as a character, incorporating his struggles with substance abuse into the decay of the universe; Michael Ende's novel The Neverending Story famously loops in on itself.Is this an effective tool for writers to use? What makes it work and when does it fall flat? Let's analyze the phenomena!<\/p>",
      "endTime": "2018-03-09T16:15-0800",
      "hashTag": "#MetaInSFF",
      "id": "2018004",
      "location": "Salon A/B",
      "participants": [
        {
          "id": "16",
          "type": "moderator"
        },
        {
          "id": "69",
          "type": "participant"
        },
        {
          "id": "29",
          "type": "participant"
        },
        {
          "id": "32",
          "type": "participant"
        },
        {
          "id": "57",
          "type": "participant"
        }
      ],
      "sortKey": "20",
      "startTime": "2018-03-09T15:00-0800",
      "title": "The Play Within the Play: An Analysis of Going Meta in Speculative Fiction",
      "track": "Panel",
      "type": "Panel"
    },
    {
      "alternate": false,
      "description": "<p>Readings by Nancy Jane Moore, Garrett Croker, Laura Davy, and Laura Pearlman.<\/p>",
      "endTime": "2018-03-09T16:15-0800",
      "hashTag": "#ReadingMooreCrokerDavyPearlman",
      "id": "2018005",
      "location": "Santa Rosa",
      "participants": [
        {
          "id": "11",
          "type": "participant"
        },
        {
          "id": "12",
          "type": "participant"
        },
        {
          "id": "41",
          "type": "participant"
        },
        {
          "id": "47",
          "type": "participant"
        }
      ],
      "sortKey": "25",
      "startTime": "2018-03-09T15:00-0800",
      "title": "Reading: Moore, Croker, Davy, Pearlman",
      "track": "Reading",
      "type": "Reading"
    },
    {
      "alternate": false,
      "description": "<p>What makes a short story stand out? What gives a story that special push to get it out of the slush pile and onto an editor's desk, and maybe even to publication? Editors often say that many stories they see in their slush piles are competent, but not amazing. Why do they end up selecting what they do? Is it a compelling plot, emotional resonance, distinct characters, or some combination of elements? What is the death knell for a stories chances? In this panel, authors and editors will discuss what elements make a story truly sparkle.<\/p>",
      "endTime": "2018-03-09T17:45-0800",
      "hashTag": "#ShortStoriesthatStandOutFromtheSlushPile",
      "id": "2018006",
      "location": "Salon A/B",
      "participants": [
        {
          "id": "30",
          "type": "moderator"
        },
        {
          "id": "22",
          "type": "participant"
        },
        {
          "id": "40",
          "type": "participant"
        },
        {
          "id": "61",
          "type": "participant"
        },
        {
          "id": "66",
          "type": "participant"
        }
      ],
      "sortKey": "30",
      "startTime": "2018-03-09T16:30-0800",
      "title": "Short Stories that Stand Out From the Slush Pile",
      "track": "Panel",
      "type": "Panel"
    },
    {
      "alternate": false,
      "description": "<p>How do performers get into character, when a character is outside of their personal experience on a drastic (planetary/ dimensional/species) level? Can writers and actors faithfully depict a true alien? What performances have been done well, and which failed, and why? How has a broader, more accurate depiction of the diversity of humanity on the fronts of physical capability/disability, neurology, gender, and phenotype made it harder to depict an alien who fits the definition of &quot;unlike any of us?&quot; For instance, humans &quot;talk&quot; via sign language, computer, and vocal cords, so it wouldn't be that strange if an alien had no mouth and communicated in a non-verbal manner, or had no hands or mouth and talked via a computer that translated some other kind of movement into our language--but fifty years ago, you'd be hard pressed to find a non-verbal character depicted in a story, and so it would've been easy to other a character by making them non-verbal--or in the same vein, intersexed, agendered, queer, nonmonogamous, etc.<\/p>",
      "endTime": "2018-03-09T17:45-0800",
      "hashTag": "#PlayingandWritinganAlien",
      "id": "2018007",
      "location": "Salon C",
      "participants": [
        {
          "id": "51",
          "type": "moderator"
        },
        {
          "id": "4237",
          "type": "participant"
        },
        {
          "id": "70",
          "type": "participant"
        },
        {
          "id": "57",
          "type": "participant"
        },
        {
          "id": "65",
          "type": "participant"
        }
      ],
      "sortKey": "35",
      "startTime": "2018-03-09T16:30-0800",
      "title": "Playing (and Writing) an Alien",
      "track": "Panel",
      "type": "Panel"
    },
    {
      "alternate": false,
      "description": "",
      "endTime": "2018-03-09T17:45-0800",
      "hashTag": "#ReadingCloughRobertsBowesJoel",
      "id": "2018008",
      "location": "Santa Rosa",
      "participants": [
        {
          "id": "71",
          "type": "participant"
        },
        {
          "id": "8",
          "type": "participant"
        },
        {
          "id": "27",
          "type": "participant"
        },
        {
          "id": "55",
          "type": "participant"
        }
      ],
      "sortKey": "40",
      "startTime": "2018-03-09T16:30-0800",
      "title": "Reading: Clough, Roberts, Bowes, Joel",
      "track": "Reading",
      "type": "Reading"
    },
    {
      "alternate": false,
      "description": "<p>As scientists learn more and more about our astonishing universe, from the macro to the micro, does science begin to awe and inspire, as religion can? Does religion fall away, or evolve? How does science affect our mood, our hope, and our outlook on life? What might religion look like in &quot;the future&quot; (very scientifically advanced societies, such as in Ada Palmer's Terra Ignota series)?<\/p>",
      "endTime": "2018-03-09T21:15-0800",
      "hashTag": "#SpeculativeFictionScienceandtheSacred",
      "id": "2018009",
      "location": "Salon A/B",
      "participants": [
        {
          "id": "67",
          "type": "moderator"
        },
        {
          "id": "4",
          "type": "participant"
        },
        {
          "id": "10",
          "type": "participant"
        },
        {
          "id": "16",
          "type": "participant"
        },
        {
          "id": "4237",
          "type": "participant"
        }
      ],
      "sortKey": "45",
      "startTime": "2018-03-09T20:00-0800",
      "title": "Speculative Fiction, Science and the Sacred",
      "track": "Panel",
      "type": "Panel"
    },
    {
      "alternate": false,
      "description": "<p>Have you found yourself depressed lately, and wanting to read a book where you were guaranteed that the protagonist and their allies would survive the book in good cheer and all the villains would get their comeuppance? You might be surprised to learn that there's a genre for that--the misguidedly scorned (contemporary) romance novel. But what are romance novels really like? Why should you start reading them if you're not already? What does toxic masculinity have to do with the perception of romance novels and their enthusiasts? All, from extant romance enthusiasts to the newly curious, are encouraged to come discuss what romance novels offer for today's discerning feminists.<\/p>",
      "endTime": "2018-03-09T21:15-0800",
      "hashTag": "#RomancefortheEndoftheWorld",
      "id": "2018010",
      "location": "Salon C",
      "participants": [
        {
          "id": "66",
          "type": "moderator"
        },
        {
          "id": "29",
          "type": "participant"
        },
        {
          "id": "57",
          "type": "participant"
        },
        {
          "id": "64",
          "type": "participant"
        },
        {
          "id": "72",
          "type": "participant"
        }
      ],
      "sortKey": "50",
      "startTime": "2018-03-09T20:00-0800",
      "title": "Romance for the End of the World",
      "track": "Panel",
      "type": "Panel"
    },
    {
      "alternate": false,
      "description": "<p>Mary Shelley's Frankenstein combined horror with science fiction. Stevenson's Strange Case of Dr. Jeckyll and Mr. Hyde blended social commentary with the horrors of addiction. Members of the San Francisco Bay Area chapter of the Horror Writers Association will read from their own works to illustrate all the genres included under the mantle of horror.<\/p>",
      "endTime": "2018-03-09T21:15-0800",
      "hashTag": "#TheSpectrumofHorror",
      "id": "2018011",
      "location": "Santa Rosa",
      "participants": [
        {
          "id": "37",
          "type": "participant"
        },
        {
          "id": "54",
          "type": "participant"
        }
      ],
      "sortKey": "55",
      "startTime": "2018-03-09T20:00-0800",
      "title": "The Spectrum of Horror",
      "track": "Reading",
      "type": "Reading"
    },
    {
      "alternate": false,
      "description": "<p>&quot;I don't belong here, and sooner or later everyone else is going to see me for what I really am: a fraud.&quot;Imposter syndrome isn't just the butterfly feeling of stage fright or nervousness. It is a deep-rooted fear of somehow not being 'worthy enough'--because of abuse, background, schooling, cultural differences, etc.--that can stop you from having confidence in yourself and potentially keep you from achieving your goals. It's a vicious cycle that can keep you from moving forward because if you talk about how you feel like an imposter, people will find out that you ARE an imposter. A panel discussing what imposter syndrome is and people's personal experiences of feeling like they 'don't belong' can help bring to light that it's OKAY to feel this way and that you do, indeed, belong. We'll also talk about our favorite examples of characters who have imposter syndrome, and how this affects their story arc, such as Kel in Tamora Pierce's Protector of the Small quartet, Bridger in Ada Palmer's Terra Ignota series, Maia in Katherine Addison's novel Goblin Emperor; as well as characters we found inspiring and reassuring in their hard-earned self-confidence, such as Lauren in Octavia Butler's Parable novels, or Lirael of Garth Nix's Abhorsen series.<\/p>",
      "endTime": "2018-03-09T22:45-0800",
      "hashTag": "#ImposterSyndrome",
      "id": "2018012",
      "location": "Salon A/B",
      "participants": [
        {
          "id": "61",
          "type": "moderator"
        },
        {
          "id": "14",
          "type": "participant"
        },
        {
          "id": "24",
          "type": "participant"
        },
        {
          "id": "42",
          "type": "participant"
        },
        {
          "id": "56",
          "type": "participant"
        }
      ],
      "sortKey": "60",
      "startTime": "2018-03-09T21:30-0800",
      "title": "Imposter Syndrome: You DO Deserve To Be Here",
      "track": "Panel",
      "type": "Panel"
    },
    {
      "alternate": false,
      "description": "<p>Over the last year, sexual assault victims have been more forthcoming about their stories than perhaps ever before. Are these stories reflected in fiction? Has fiction made it less taboo to speak against it and about it?Ada Palmer's novel Too Like the Lightning opens with a trigger warning, delivered by a possibly unreliable narrator. Andrea Hairston's novel Redwood &amp; Wildfire deals extensively with the narrative of a rape and its aftermath. Most of Lilith Saintcrow's protagonists are rape survivors. Nalo Hopkinson's novel Midnight Robber has a protagonist who becomes pregnant by her rapist. Even tough-as-nails Stark, the protagonist of Richard Kadrey's Sandman Slim series, has been, in recent books, seeking help to deal with the rapes he endured. What was done well in these stories, and others? What wasn't? What do survivors think of them? <\/p>",
      "endTime": "2018-03-09T22:45-0800",
      "hashTag": "#WritingSexualAssault",
      "id": "2018013",
      "location": "Salon C",
      "participants": [
        {
          "id": "69",
          "type": "moderator"
        },
        {
          "id": "73",
          "type": "participant"
        },
        {
          "id": "20",
          "type": "participant"
        },
        {
          "id": "40",
          "type": "participant"
        },
        {
          "id": "4238",
          "type": "participant"
        }
      ],
      "sortKey": "65",
      "startTime": "2018-03-09T21:30-0800",
      "title": "Writing Sexual Assault",
      "track": "Panel",
      "type": "Panel"
    },
    {
      "alternate": false,
      "description": "<p>Broad Universe is an international, non-profit organization dedicated to promoting, encouraging, honoring, and celebrating women writers and editors in science fiction, fantasy, horror and other speculative genres. Members of Broad Universe will read from a selection of their works.<\/p>",
      "endTime": "2018-03-09T22:45-0800",
      "hashTag": "#BroadUniverse",
      "id": "2018014",
      "location": "Santa Rosa",
      "participants": [
        {
          "id": "16",
          "type": "participant"
        },
        {
          "id": "17",
          "type": "participant"
        },
        {
          "id": "74",
          "type": "participant"
        },
        {
          "id": "54",
          "type": "participant"
        }
      ],
      "sortKey": "70",
      "startTime": "2018-03-09T21:30-0800",
      "title": "Broad Universe Rapid Fire Reading",
      "track": "Reading",
      "type": "Reading"
    },
    {
      "alternate": false,
      "description": "<p>It's back -- the panel in which those who appear argue about the Great Issues of The SF/Fnal world -- do ents have knees? Would a Culture Mind have made a better headmaster than Dumbledore? Any arguments you have, bring them and we'll add them to the list, and argue throughout the panel.<\/p>",
      "endTime": "2018-03-09T22:45-0800",
      "hashTag": "#ConTention",
      "id": "2018015",
      "location": "Sacramento",
      "participants": [{
        "id": "59",
        "type": "participant"
      }],
      "sortKey": "75",
      "startTime": "2018-03-09T21:30-0800",
      "title": "ConTention",
      "track": "Panel",
      "type": "Panel"
    },
    {
      "alternate": false,
      "description": "<p>In works like Mary Shelley's Frankenstein, Thomas M. Disch's Camp Concentration, and Michael Swanwick's Jack Faust, we see modern reflections of the old Faust myth -- a tale that has a lot of resonance for SF and F, where knowledge is generally considered a *virtue*, or a noble goal, rather than something to be pursued only with great care.What other examples of the Faust myth do we have in the SFnal world, and how does our treatment of it over time change, and what does that tell us about who we are, and who we want to be?<\/p>",
      "endTime": "2018-03-10T10:15-0800",
      "hashTag": "#FaustandHisManyManyStudents",
      "id": "2018016",
      "location": "Salon C",
      "participants": [
        {
          "id": "59",
          "type": "moderator"
        },
        {
          "id": "9",
          "type": "participant"
        },
        {
          "id": "29",
          "type": "participant"
        },
        {
          "id": "32",
          "type": "participant"
        }
      ],
      "sortKey": "80",
      "startTime": "2018-03-10T09:00-0800",
      "title": "Faust, and His Many, Many Students",
      "track": "Panel",
      "type": "Panel"
    },
    {
      "alternate": false,
      "description": "<p>Wilderness is an interstitial space, existing between cities, roads and settlements. People have held many different views of wilderness form a place to be tamed, to a place to be preserved. Yet the idea of &#147;untouched&#148; wildlands remands problematic. Recent scholars such as William Cronon have questioned if wilderness even exists. How have works such as Lord of the Rings, Zahrah the Windseeker by Nnedi Okorafor &amp; Mirror Empire by Kameron Hurley engaged with these ideas? How will our changing ideas about wilderness effect new and future work? <\/p>",
      "endTime": "2018-03-10T11:45-0800",
      "hashTag": "#WildernessinSFF",
      "id": "2018017",
      "location": "Salon C",
      "participants": [
        {
          "id": "10",
          "type": "moderator"
        },
        {
          "id": "2",
          "type": "participant"
        },
        {
          "id": "7",
          "type": "participant"
        },
        {
          "id": "16",
          "type": "participant"
        },
        {
          "id": "67",
          "type": "participant"
        }
      ],
      "sortKey": "85",
      "startTime": "2018-03-10T10:30-0800",
      "title": "Wilderness in SFF ",
      "track": "Panel",
      "type": "Panel"
    },
    {
      "alternate": false,
      "description": "<p>For many, the idea of &#145;normal&#146; weighs heavily.Some people suffering through depression put on a happy exterior because of the disapproval they receive when they show how they're really feeling. Many autistic folks adopt a complicated system of interaction they must adhere to vigilantly to make allistic people more comfortable around them. Deaf folks are often discouraged from learning sign language in order to blend in. Those with anxiety disorders hold themselves together, often at great personal cost, to keep appearances up lest others laugh at them. Blind people frequently wear sunglasses so that their eye motions or visible damage to their eyes doesn't disturb the sighted.The &quot;different&quot; have so much pressure on them to make the &quot;standard&quot; or &quot;normal&quot; comfortable and in many cases, ignorant of the distress of their fellow human beings. How this manifests varies greatly depending on the circumstances. This mind-broadening panel will help attendees understand different points of view, both in the real world and in recommended reading.<\/p>",
      "endTime": "2018-03-10T11:45-0800",
      "hashTag": "#ActingNormal",
      "id": "2018018",
      "location": "Salon A/B",
      "participants": [
        {
          "id": "20",
          "type": "moderator"
        },
        {
          "id": "75",
          "type": "participant"
        },
        {
          "id": "27",
          "type": "participant"
        },
        {
          "id": "32",
          "type": "participant"
        },
        {
          "id": "65",
          "type": "participant"
        }
      ],
      "sortKey": "90",
      "startTime": "2018-03-10T10:30-0800",
      "title": "Acting Normal: Neurodiversity, Disability, and Performance",
      "track": "Panel",
      "type": "Panel"
    },
    {
      "alternate": false,
      "description": "<p>Bring your nifty gadgets and devices, your gewgaws and gizmos, your stuffies and robots, anything that you want to let people play with. Come try out the latest smartphone, a Bluetooth keyboard that looks like an old typewriter, some very satisfying-feeling faux-stone toy building blocks, a portal gun, assorted fidget spinners, and more.<\/p>",
      "endTime": "2018-03-10T11:45-0800",
      "hashTag": "#Gadgetanddevicepettingzoo",
      "id": "2018019",
      "location": "Game Room",
      "participants": [{
        "id": "22",
        "type": "moderator"
      }],
      "sortKey": "95",
      "startTime": "2018-03-10T10:30-0800",
      "title": "Gadget and device \"petting zoo\"",
      "track": "Event",
      "type": "Special"
    },
    {
      "alternate": false,
      "description": "<p>Villians come in all descriptions and styles, from a giant glowing eyeball on top of a tower to the Faceless Bureaucracy, men in dark suits, huge dragons, and planet-smashing Outer Forces.  So, what better to do than to have them face off against each other? The panelists will each bring in some villains, take a few audience suggestions, and then we'll have a good old-fashioned debate (perhaps with voting) until we narrow down the Villain Bracket to the Official Big Bad of FOGcon!<\/p>",
      "endTime": "2018-03-10T11:45-0800",
      "hashTag": "#ItsTimeForAVillainoff",
      "id": "2018020",
      "location": "Sacramento",
      "participants": [
        {
          "id": "59",
          "type": "moderator"
        },
        {
          "id": "8",
          "type": "participant"
        },
        {
          "id": "11",
          "type": "participant"
        },
        {
          "id": "58",
          "type": "participant"
        },
        {
          "id": "64",
          "type": "participant"
        }
      ],
      "sortKey": "100",
      "startTime": "2018-03-10T10:30-0800",
      "title": "It's Time For A Villain-off!",
      "track": "Panel",
      "type": "Panel"
    },
    {
      "alternate": false,
      "description": "<p>Readings by Marie Brennan, Steve Brady, Sheryl R. Hayes, and Dominica Phetteplace.<\/p>",
      "endTime": "2018-03-10T11:45-0800",
      "hashTag": "#ReadingBrennanBradyHayesPhetteplace",
      "id": "2018021",
      "location": "Santa Rosa",
      "participants": [
        {
          "id": "76",
          "type": "participant"
        },
        {
          "id": "4",
          "type": "participant"
        },
        {
          "id": "23",
          "type": "participant"
        },
        {
          "id": "70",
          "type": "participant"
        }
      ],
      "sortKey": "105",
      "startTime": "2018-03-10T10:30-0800",
      "title": "Reading: Brennan, Brady, Hayes, Phetteplace",
      "track": "Reading",
      "type": "Reading"
    },
    {
      "alternate": false,
      "description": "<p>Whether it's your first time picking up a RPG character sheet, or whether you're an old pro looking to join a party, this is your opportunity to create a new character in a friendly and supportive environment in the Game Room. Learn the mechanics of characters, attributes, skills, and even personal quirks based on the Generic Universal Role Playing System. <\/p>",
      "endTime": "2018-03-10T14:45-0800",
      "hashTag": "#RPGCharacterWorkshop",
      "id": "2018022",
      "location": "Game Room",
      "participants": [{
        "id": "14",
        "type": "moderator"
      }],
      "sortKey": "110",
      "startTime": "2018-03-10T13:30-0800",
      "title": "Create a character workshop",
      "track": "Workshop",
      "type": "Special"
    },
    {
      "alternate": false,
      "description": "<p>Strange California, released Aug 2017, is filled with fresh and imaginative stories that go beyond the expected collection of an anthology&#151;these stories explore, reflect, and reveal the state, its history, its secret history, its legends, and its many mythologies. California inspires and invites the imaginative, both weird and wonderful. This anthology celebrates that inspirational quality&#151;the state and its people as muse&#151;through 26 distinct stories. This panel will explore the genesis of those tales and reflect on a cultural consciousness inclined to the speculative--a physical and geographical region fueled by the commerce of story. From the point of conception through the Kickstarter process, this panel will explore the unique creation of Strange California and the State it highlights.<\/p>",
      "endTime": "2018-03-10T14:45-0800",
      "hashTag": "#StrangeCaliforniaTheJourney",
      "id": "2018023",
      "location": "Santa Rosa",
      "participants": [
        {
          "id": "1",
          "type": "participant"
        },
        {
          "id": "13",
          "type": "participant"
        }
      ],
      "sortKey": "115",
      "startTime": "2018-03-10T13:30-0800",
      "title": "Strange California: The Journey",
      "track": "Reading",
      "type": "Reading"
    },
    {
      "alternate": false,
      "description": "<p>Ada Palmer's Terra Ignota series is extremely progressive about gender... or, is it? The novel jumps back and forth from gender freedom to gender oppression in an ongoing explicit commentary on its characters' gender(s). Was it a successful gambit, and how do we define success (or failure) in this regard? How does it compare to other recent pronoun and gender experimentation in genre fiction? How much does this accurately reflect our lives and identities today? Did we learn something from the challenges explicitly presented to our concepts of gender?<\/p>",
      "endTime": "2018-03-10T14:45-0800",
      "hashTag": "#TheNewGenderFrontier",
      "id": "2018024",
      "location": "Salon A/B",
      "participants": [
        {
          "id": "73",
          "type": "moderator"
        },
        {
          "id": "77",
          "type": "participant"
        },
        {
          "id": "78",
          "type": "participant"
        },
        {
          "id": "39",
          "type": "participant"
        },
        {
          "id": "40",
          "type": "participant"
        }
      ],
      "sortKey": "120",
      "startTime": "2018-03-10T13:30-0800",
      "title": "The New Gender Frontier",
      "track": "Panel",
      "type": "Panel"
    },
    {
      "alternate": false,
      "description": "<p>If you're a human being with friends, family, or people you look up to, chances are you lost someone significant to you in the last year. Let's talk about death in fiction, and what stories have helped us understand our own grief and how to cope with the loss of a person we cared for. Spoilers will be unavoidable in this panel, though we will give people a chance to leave the room before we get into them as we discuss each title that meant a lot to us. Titles that will may be discussed depending on where the panel takes us are Lois McMaster Bujold's novel Gentleman Jole and the Red Queen, Octavia Butler's novel Dawn, Andrea Hairston's novel Redwood and Wildfire, Mark Helprin's story &quot;Monday,&quot; Nalo Hopkinson's  Midnight Robber, and more.<\/p>",
      "endTime": "2018-03-10T14:45-0800",
      "hashTag": "#CopingwithDeathandLoss",
      "id": "2018025",
      "location": "Sacramento",
      "participants": [
        {
          "id": "65",
          "type": "moderator"
        },
        {
          "id": "15",
          "type": "participant"
        },
        {
          "id": "34",
          "type": "participant"
        },
        {
          "id": "42",
          "type": "participant"
        },
        {
          "id": "55",
          "type": "participant"
        }
      ],
      "sortKey": "125",
      "startTime": "2018-03-10T13:30-0800",
      "title": "Coping with Death and Loss",
      "track": "Panel",
      "type": "Panel"
    },
    {
      "alternate": false,
      "description": "<p>Every day, humanity increases its bandwith. Every day, people have access to more and more data than they ever have, more and more art and entertainment, more and more news.  Is there a limit to how much people can usefully process? Does this flood of information unite us, or divide us?<\/p>",
      "endTime": "2018-03-10T14:45-0800",
      "hashTag": "#InformationalLimits",
      "id": "2018026",
      "location": "Salon C",
      "participants": [
        {
          "id": "52",
          "type": "moderator"
        },
        {
          "id": "4237",
          "type": "participant"
        },
        {
          "id": "38",
          "type": "participant"
        },
        {
          "id": "43",
          "type": "participant"
        },
        {
          "id": "66",
          "type": "participant"
        }
      ],
      "sortKey": "130",
      "startTime": "2018-03-10T13:30-0800",
      "title": "The Informational Limits of Being Human",
      "track": "Panel",
      "type": "Panel"
    },
    {
      "alternate": false,
      "description": "<p>Perhaps with a fresh character rolled up at FOGcon, here's your chance to go on a pencil-and-paper RPG adventure in the Game Room. Newcomers to the world of role-playing games are welcome.<\/p>",
      "endTime": "2018-03-10T16:15-0800",
      "hashTag": "#RPGAdventureQuest",
      "id": "2018027",
      "location": "Game Room",
      "participants": [{
        "id": "27",
        "type": "participant"
      }],
      "sortKey": "135",
      "startTime": "2018-03-10T15:00-0800",
      "title": "RPG Adventure ",
      "track": "Workshop",
      "type": "Special"
    },
    {
      "alternate": false,
      "description": "<p>Chances are these days that you're woken up in the morning by your palmtop, send important messages through wifi signals invisible to your senses, and in an emergency, will have your vital signs and fluid properties monitored and analyzed by computer chips. Chances also are that all of us have at times muttered &quot;I don't trust it,&quot; and gone the long way circumventing technology in some process to be sure of its ends. Recently, peoples' trusted map apps were directing them onto roads shut down for wildfires, as they had the lightest traffic. How do we reconcile our need for technological improvements and conveniences with the risks involved? What affects our perceptions of whether a machine is trustworthy? What if the machine is part human, such as the set-sets of Ada Palmer's Terra Ignota series?<\/p>",
      "endTime": "2018-03-10T16:15-0800",
      "hashTag": "#Howmuchdowetrustthemachine",
      "id": "2018028",
      "location": "Sacramento",
      "participants": [
        {
          "id": "5",
          "type": "moderator"
        },
        {
          "id": "8",
          "type": "participant"
        },
        {
          "id": "44",
          "type": "participant"
        },
        {
          "id": "4238",
          "type": "participant"
        },
        {
          "id": "53",
          "type": "participant"
        }
      ],
      "sortKey": "140",
      "startTime": "2018-03-10T15:00-0800",
      "title": "How much do we trust the machine?",
      "track": "Panel",
      "type": "Panel"
    },
    {
      "alternate": false,
      "description": "<p>Back in 2015, K. Tempest Bradford made a challenge to readers to only read women writers for a year. Some people took up the challenge, while others modified it to be only writers of color for a year, or only non-Americans for a year. Our panelists are all people who took up a such a challenge, and want to share how it changed their reading habits, what they learned from it, and if they have future challenges planned.<\/p>",
      "endTime": "2018-03-10T16:15-0800",
      "hashTag": "#DiversifyingOurTBRShelf",
      "id": "2018029",
      "location": "Salon A/B",
      "participants": [
        {
          "id": "26",
          "type": "moderator"
        },
        {
          "id": "24",
          "type": "participant"
        },
        {
          "id": "33",
          "type": "participant"
        },
        {
          "id": "45",
          "type": "participant"
        },
        {
          "id": "48",
          "type": "participant"
        }
      ],
      "sortKey": "145",
      "startTime": "2018-03-10T15:00-0800",
      "title": "Diversifying Our TBR Shelf",
      "track": "Panel",
      "type": "Panel"
    },
    {
      "alternate": false,
      "description": "<p>The end of a civilization, language, or world has been a significant event in many stories over the centuries, whether it is the elves going West, a continent being nigh-destroyed by earthquakes, or historical records of another time being destroyed.What draws us to these tales, even when we know (or strongly suspect) the end will be tragic? What do we gain from putting ourselves through these stories? How has this affected us in our personal lives?<\/p>",
      "endTime": "2018-03-10T16:15-0800",
      "hashTag": "#ThingsBreakDownInDifferentWays",
      "id": "2018030",
      "location": "Salon C",
      "participants": [
        {
          "id": "59",
          "type": "moderator"
        },
        {
          "id": "12",
          "type": "participant"
        },
        {
          "id": "35",
          "type": "participant"
        },
        {
          "id": "36",
          "type": "participant"
        },
        {
          "id": "42",
          "type": "participant"
        }
      ],
      "sortKey": "150",
      "startTime": "2018-03-10T15:00-0800",
      "title": "Things Break Down In Different Ways",
      "track": "Panel",
      "type": "Panel"
    },
    {
      "alternate": false,
      "description": "<p>Readings by Katherine Kerr, Daniel Marcus, Jon Chaisson, and Ellen Klages.<\/p>",
      "endTime": "2018-03-10T16:15-0800",
      "hashTag": "#ReadingKerrMarcusChaissonKlages",
      "id": "2018031",
      "location": "Santa Rosa",
      "participants": [
        {
          "id": "6",
          "type": "participant"
        },
        {
          "id": "32",
          "type": "participant"
        },
        {
          "id": "34",
          "type": "participant"
        },
        {
          "id": "36",
          "type": "participant"
        }
      ],
      "sortKey": "155",
      "startTime": "2018-03-10T15:00-0800",
      "title": "Reading: Kerr, Marcus, Chaisson, Klages",
      "track": "Reading",
      "type": "Reading"
    },
    {
      "alternate": false,
      "description": "<p>Join us in the Game Room for some family-friendly games, from classics like UNO to cooperative games like Forbidden Island.<\/p>",
      "endTime": "2018-03-10T17:45-0800",
      "hashTag": "#FamilyFriendlyGaming",
      "id": "2018032",
      "location": "Game Room",
      "participants": [{
        "id": "27",
        "type": "moderator"
      }],
      "sortKey": "160",
      "startTime": "2018-03-10T16:30-0800",
      "title": "Family-friendly gaming hour",
      "track": "Kids",
      "type": "Panel"
    },
    {
      "alternate": false,
      "description": "<p>Airport ghost sex. Cannibalistic witches. Liquor that makes you explode. Secret dimensions--hell, secret lesbian islands, where the lucky women being shipped off to convents end up if their airship captain is sympathetic. Romances are often written with fewer boundaries and less rules-lawyering than most other novels, which allows for a fascinating cornucopia of preposterousness. Come and listen to the panelists share the most amazing and cracked things they've encountered in a romance novel, and talk about why romance novels can get away with it when other genres generally can't.<\/p>",
      "endTime": "2018-03-10T17:45-0800",
      "hashTag": "#GloriousBonkersRomance",
      "id": "2018033",
      "location": "Salon C",
      "participants": [
        {
          "id": "73",
          "type": "moderator"
        },
        {
          "id": "26",
          "type": "participant"
        },
        {
          "id": "72",
          "type": "participant"
        }
      ],
      "sortKey": "165",
      "startTime": "2018-03-10T16:30-0800",
      "title": "Glorious, Bonkers Romance",
      "track": "Panel",
      "type": "Panel"
    },
    {
      "alternate": false,
      "description": "<p>Sometimes, when reading favorite books, one runs across something that just knocks you sideways--that you missed the first time, or did not react to as strongly in the past. What causes us to react differently on a reread, and how do we cope with books that may have suddenly become unsafe? Are there stories we have deliberately returned to in the hope of this impact, and if so, why?This is a very sensitive topic that will touch on personal trauma, so attendees are requested to be kind and compassionate to each other.<\/p>",
      "endTime": "2018-03-10T17:45-0800",
      "hashTag": "#WhenFamiliarWatersArentSafetoGoInAnymore",
      "id": "2018034",
      "location": "Sacramento",
      "participants": [
        {
          "id": "45",
          "type": "moderator"
        },
        {
          "id": "23",
          "type": "participant"
        },
        {
          "id": "48",
          "type": "participant"
        },
        {
          "id": "56",
          "type": "participant"
        }
      ],
      "sortKey": "170",
      "startTime": "2018-03-10T16:30-0800",
      "title": "When Familiar Waters Aren't Safe to Go In Anymore",
      "track": "Panel",
      "type": "Panel"
    },
    {
      "alternate": false,
      "description": "<p>Ada Palmer discusses the history and production of books from antiquity through the dissemination of the printing press, bringing real samples of antique books and manuscripts from the 14th through 18th centuries. Touch and feel real antique parchment, papyrus, illuminated manuscripts, and the earliest printed books, and learn about how transformations in book production changed the possibilities of scholarship and science. Whether you are deciding what kind of books to have in your own fantasy world or just love books and history, hands-on experience can&#146;t be beat! Based on Palmer&#146;s teaching work at the University of Chicago. <\/p>",
      "endTime": "2018-03-10T17:45-0800",
      "hashTag": "##HGAPRareBooks",
      "id": "2018035",
      "location": "Salon A/B",
      "participants": [{
        "id": "4238",
        "type": "participant"
      }],
      "sortKey": "175",
      "startTime": "2018-03-10T16:30-0800",
      "title": "Honored Guest Ada Palmer Slot: Hands-On Rare Books Edition",
      "track": "",
      "type": "Panel"
    },
    {
      "alternate": false,
      "description": "<p>Readings by Anne Leonard, Dave Smeds, Liz Demi Green, and Garrett Calcaterra.<\/p>",
      "endTime": "2018-03-10T17:45-0800",
      "hashTag": "#ReadingLeonardSmedsGreenCalcaterra",
      "id": "2018036",
      "location": "Santa Rosa",
      "participants": [
        {
          "id": "5",
          "type": "participant"
        },
        {
          "id": "18",
          "type": "participant"
        },
        {
          "id": "79",
          "type": "participant"
        },
        {
          "id": "63",
          "type": "participant"
        }
      ],
      "sortKey": "180",
      "startTime": "2018-03-10T16:30-0800",
      "title": "Reading: Leonard, Smeds, Green, Calcaterra",
      "track": "Reading",
      "type": "Reading"
    },
    {
      "alternate": false,
      "description": "<p>Abandoned Places is the first release of Shohola Press, a new imprint launching in early 2018. Join us for a reading from several Bay Area writers (and out-of-town participants) who have contributed stories to this exploration of places lonely, rejected and uninhabited.<\/p>",
      "endTime": "2018-03-10T21:15-0800",
      "hashTag": "#ReadingfromAbandonedPlaces",
      "id": "2018037",
      "location": "Santa Rosa",
      "participants": [],
      "sortKey": "185",
      "startTime": "2018-03-10T20:00-0800",
      "title": "Reading from Abandoned Places",
      "track": "Reading",
      "type": "Reading"
    },
    {
      "alternate": false,
      "description": "<p>Harlan Ellison wrote about how the classic monsters of horror film and story have been de-fanged (so to speak) -- the werewolf, the vampire, and so forth. You can now buy a plush Cthulhu from any one of a number of sources, read cartoons about baby extradimensional horrors, and so forth. Can Cthulhu and the rest be saved from being not-scary due to cuddliness? And if so, how?<\/p>",
      "endTime": "2018-03-10T21:15-0800",
      "hashTag": "#CuddlyHorrorsfromOuterSpace",
      "id": "2018038",
      "location": "Sacramento",
      "participants": [
        {
          "id": "52",
          "type": "moderator"
        },
        {
          "id": "80",
          "type": "participant"
        },
        {
          "id": "11",
          "type": "participant"
        },
        {
          "id": "12",
          "type": "participant"
        },
        {
          "id": "78",
          "type": "participant"
        }
      ],
      "sortKey": "190",
      "startTime": "2018-03-10T20:00-0800",
      "title": "Cuddly Horrors from Outer Space",
      "track": "Panel",
      "type": "Panel"
    },
    {
      "alternate": false,
      "description": "<p>Speculative fiction often has trouble dealing with currency. Characters are either poor and desperate, or rich and unconcerned, with little in between. In fantasy, characters carry a heavy pouch of gold coins that never runs out, whereas in science fiction nondescript &quot;credits&quot; leech color from the story. Some writers seem to avoid naming meaningful prices, perhaps because they are uncomfortable developing a monetary system that will stand up to scrutiny, while others count out every galleon and knut. Which authors actually deal with money, and the cost of things, well? Why haven't we seen cryptocurrency utilized in more works? Do money systems really matter, or can we get by saying thing are expensive or cheap and leave it at that? When is price important, and to whom? Is it dealt with differently children's lit vs. YA vs. adult fiction? And what about systems without currency, like Le Guin's The Dispossessed or Vance's The Moon Moth?<\/p>",
      "endTime": "2018-03-10T21:15-0800",
      "hashTag": "#InfiniteGoldCheatsCryptocurrencyandCredits",
      "id": "2018039",
      "location": "Salon C",
      "participants": [
        {
          "id": "41",
          "type": "moderator"
        },
        {
          "id": "4",
          "type": "participant"
        },
        {
          "id": "14",
          "type": "participant"
        },
        {
          "id": "19",
          "type": "participant"
        },
        {
          "id": "60",
          "type": "participant"
        }
      ],
      "sortKey": "195",
      "startTime": "2018-03-10T20:00-0800",
      "title": "Infinite Gold Cheats, Cryptocurrency, and Credits",
      "track": "Panel",
      "type": "Panel"
    },
    {
      "alternate": false,
      "description": "<p>Master theatre artist Andrea Hairston reads sections from her novels including Will Do Magic For Small Change, and musical dynamo Pan Morigan will sing songs she has written based on lyrics from Hairston&#146;s book. The melodies are influenced by Pan&#146;s research into the banjo and blues, Irish music, and something indefinable&#151;wild, syncretic. Pan Morigan is a vocalist, instrumentalist, songwriter, poet, and the music director for Chrysalis Theater. Her musical adventures have included touring with Bobby McFerrin and his all-improvisational vocal group Voicestra, producing several albums, Castles of Gold and Wild Blue and creating, recording, and performing songs for Andrea Hairston's novels, Redwood and Wildfire and Will Do Magic For Small Change. Her forthcoming album is Storm Hands.After the performance Pan and Andrea will discuss collaboration in theatre, creating music for literary texts and preparing your voice for readings <\/p>",
      "endTime": "2018-03-10T21:15-0800",
      "hashTag": "##HGAHShow",
      "id": "2018040",
      "location": "Salon A/B",
      "participants": [{
        "id": "4237",
        "type": "participant"
      }],
      "sortKey": "200",
      "startTime": "2018-03-10T20:00-0800",
      "title": "Andrea Hairston HG: Reading and Musical Performance",
      "track": "",
      "type": "Panel"
    },
    {
      "alternate": false,
      "description": "<p>Open Participation!Music and stories have fed each other since before Homer, and that's certainly true for Speculative Fiction -- including music inspired by and derivative from genre fiction, from the early days of filking to S.J. Tucker making tie-in albums for Catherynne M. Valente's Orphan's Tales, and the two of them going on tour together later on to promote Valente's novel Palimpsest with nothing less than a traveling burlesque. Let's talk a little about how Spec Fic and music have influenced each other, and sing a lot!<\/p>",
      "endTime": "2018-03-10T22:45-0800",
      "hashTag": "#SingItAll",
      "id": "2018041",
      "location": "Sacramento",
      "participants": [
        {
          "id": "10",
          "type": "moderator"
        },
        {
          "id": "15",
          "type": "participant"
        },
        {
          "id": "55",
          "type": "participant"
        }
      ],
      "sortKey": "205",
      "startTime": "2018-03-10T21:30-0800",
      "title": "Sing All The Things: SF&F songs, Shanties and other work songs, music of your own devising (and maybe more)",
      "track": "Panel",
      "type": "Panel"
    },
    {
      "alternate": false,
      "description": "<p>The panelists lie. The audience asks us questions. Tried and true for one of FOGCon's late-night comedy panels. <\/p>",
      "endTime": "2018-03-10T22:45-0800",
      "hashTag": "#TheLiarsPanel",
      "id": "2018042",
      "location": "Salon C",
      "participants": [
        {
          "id": "14",
          "type": "participant"
        },
        {
          "id": "25",
          "type": "participant"
        },
        {
          "id": "34",
          "type": "participant"
        },
        {
          "id": "52",
          "type": "participant"
        },
        {
          "id": "61",
          "type": "participant"
        }
      ],
      "sortKey": "210",
      "startTime": "2018-03-10T21:30-0800",
      "title": "The Liar's Panel",
      "track": "Panel",
      "type": "Panel"
    },
    {
      "alternate": false,
      "description": "<p>Grimdark--a phrase coined by the game Warhammer 40k, and used most often in conjunction with cis, het, white male writers, especially G.R.R. Martin--is a genre often rightly criticized for how it supplies the grim and the dark. However, authors such as P.C. Hodgell, Kameron Hurley, Robin Hobb, and N.K. Jemison have made contributions to the category which are dark, grim, and exceptionally creative in the variety of ills that befall or are done to their characters. Why aren't they getting recognition in grimdark reading lists and thinkpieces? Does the gender and/or race and/or etc. of the writer affect our perception of what category their work belongs in? How does their marginalization seem to affect their work? Does it improve it? How, or how not?<\/p>",
      "endTime": "2018-03-10T22:45-0800",
      "hashTag": "#GrimdarkOnTheMargins",
      "id": "2018043",
      "location": "Salon A/B",
      "participants": [
        {
          "id": "45",
          "type": "moderator"
        },
        {
          "id": "12",
          "type": "participant"
        },
        {
          "id": "73",
          "type": "participant"
        },
        {
          "id": "26",
          "type": "participant"
        },
        {
          "id": "37",
          "type": "participant"
        }
      ],
      "sortKey": "215",
      "startTime": "2018-03-10T21:30-0800",
      "title": "Good Grimdark Done Well by Marginalized People",
      "track": "Panel",
      "type": "Panel"
    },
    {
      "alternate": false,
      "description": "<p>Readings by erotic writers of SFnal works that are on the ...erotic side.<\/p>",
      "endTime": "2018-03-10T22:45-0800",
      "hashTag": "#FOGconEroticReading",
      "id": "2018044",
      "location": "Santa Rosa",
      "participants": [
        {
          "id": "78",
          "type": "participant"
        },
        {
          "id": "40",
          "type": "participant"
        },
        {
          "id": "50",
          "type": "participant"
        },
        {
          "id": "57",
          "type": "participant"
        },
        {
          "id": "59",
          "type": "participant"
        }
      ],
      "sortKey": "220",
      "startTime": "2018-03-10T21:30-0800",
      "title": "FOGcon Erotic Reading",
      "track": "Reading",
      "type": "Reading"
    },
    {
      "alternate": false,
      "description": "<p>As conversations online have gotten faster and faster, the advantages of a conventional &quot;panel&quot; seem to have diminished. The sorts of conversations you could only ever have at an SF convention are now regularly happening on various social media. People spend less time gathering around a tabletop for games, and spend more time online.What is the role of programming in this new convention world going forward? Indeed, what is the role of conventions, in a world where people hold conventions via Google Hangouts?  Join us for a round table discussion of what we're doing here, now and in the future.<\/p>",
      "endTime": "2018-03-11T10:15-0700",
      "hashTag": "#WhitherProgramming",
      "id": "2018045",
      "location": "Salon C",
      "participants": [{
        "id": "24",
        "type": "moderator"
      }],
      "sortKey": "225",
      "startTime": "2018-03-11T09:00-0700",
      "title": "Whither Programming?",
      "track": "Panel",
      "type": "Panel"
    },
    {
      "alternate": false,
      "description": "<p>For many of us, &quot;falling into the story&quot; or &quot;putting yourself in the story&quot; are goals we strive for when reading.  But how do we actually do that?Some people do it just in their engagement with the text. Some people read Choose-Your-Own-Adventure books. Some people play roleplaying games based on their favorite books. Some people write fanfic. We'll get together to talk about why we do what we do, and what it gives us.<\/p>",
      "endTime": "2018-03-11T11:45-0700",
      "hashTag": "#HowtoGetIntoStories",
      "id": "2018046",
      "location": "Sacramento",
      "participants": [
        {
          "id": "41",
          "type": "moderator"
        },
        {
          "id": "7",
          "type": "participant"
        },
        {
          "id": "23",
          "type": "participant"
        },
        {
          "id": "28",
          "type": "participant"
        },
        {
          "id": "60",
          "type": "participant"
        }
      ],
      "sortKey": "230",
      "startTime": "2018-03-11T10:30-0700",
      "title": "How to Get Into Stories",
      "track": "Panel",
      "type": "Panel"
    },
    {
      "alternate": false,
      "description": "<p>There are many common means of expressing identity through group association, whether it's aligning with being from a particular geographical area as small as a village or large as a continent, or by a Marxist class such as lower or middle. Ada Palmer's Terra Ignota series proposes a world in which inhabitants are allowed to choose their own nations based on their personal interests, philosophy, vocation, etc., as the limiting factor of geography has been nullified, as to a slightly less socially-mobile extent, Neal Stephenson's Snow Crash and Diamond Age explore corporate-family structures and corporate-nation structures, respectively. John Brunner envisioned a world in The Shockwave Rider in which voters are divided by professions. What are the practical concerns of grouping people for governmental purposes? What are the useful considerations and constraints? What structures seem likely for our future?<\/p>",
      "endTime": "2018-03-11T11:45-0700",
      "hashTag": "#HowDoWeGroupPeople",
      "id": "2018047",
      "location": "Salon A/B",
      "participants": [
        {
          "id": "3",
          "type": "participant"
        },
        {
          "id": "13",
          "type": "participant"
        },
        {
          "id": "20",
          "type": "participant"
        },
        {
          "id": "35",
          "type": "participant"
        },
        {
          "id": "59",
          "type": "participant"
        }
      ],
      "sortKey": "235",
      "startTime": "2018-03-11T10:30-0700",
      "title": "How Do We Group People?",
      "track": "Panel",
      "type": "Panel"
    },
    {
      "alternate": false,
      "description": "<p>The power of architecture to characterize a culture, family, government, etc. cannot be underestimated. From Ada Palmer's Terra Ignota series, to Na'amen Gobert Tilahun's Wrath &amp; Athenaeum series, to Garth Nix's Seventh Tower series, architecture is used at a nearly-weaponized level to provide information about fictional pasts, futures, and worlds. What are some details you've loved? What are some structures that surprised you? Which is the one you'd want to live in most, if you could?<\/p>",
      "endTime": "2018-03-11T11:45-0700",
      "hashTag": "#Architecture&amp;Culture",
      "id": "2018048",
      "location": "Salon C",
      "participants": [
        {
          "id": "81",
          "type": "moderator"
        },
        {
          "id": "2",
          "type": "participant"
        },
        {
          "id": "38",
          "type": "participant"
        },
        {
          "id": "4238",
          "type": "participant"
        },
        {
          "id": "82",
          "type": "participant"
        }
      ],
      "sortKey": "240",
      "startTime": "2018-03-11T10:30-0700",
      "title": "What does your house (and your government's house) say about you?",
      "track": "Panel",
      "type": "Panel"
    },
    {
      "alternate": false,
      "description": "<p>Readings by Effie Seiberg, Zach Nash, Vylar Kaftan, and Daniel Potter.<\/p>",
      "endTime": "2018-03-11T11:45-0700",
      "hashTag": "#ReadingSeibergNashKaftanPotter",
      "id": "2018049",
      "location": "Santa Rosa",
      "participants": [
        {
          "id": "30",
          "type": "participant"
        },
        {
          "id": "44",
          "type": "participant"
        },
        {
          "id": "49",
          "type": "participant"
        },
        {
          "id": "61",
          "type": "participant"
        }
      ],
      "sortKey": "245",
      "startTime": "2018-03-11T10:30-0700",
      "title": "Reading: Seiberg, Nash, Kaftan, Potter",
      "track": "Reading",
      "type": "Reading"
    },
    {
      "alternate": false,
      "description": "<p>We love series so much that we invest years of our lives waiting for the Grand Finale where All Will Be Revealed--only to be disappointed by the ending as some thing are still left unresolved, others are resolved poorly, and our personal hopes for plotlines are dashed. Phillip Pullman's His Dark Materials trilogy, J.K. Rowling's Harry Potter series, Kate Thompson's Switchers trilogy, K.A. Applegate's Animorphs series, N.K. Jemisin's numerous series, Robin Hobb's even more numerous series, Octavia Butler's sadly-incomplete Parable series, and many more have left people grappling with emotions and questions afterwards. What have frustrating or underwhelming ending taught us, as readers and writers? When it comes to endings, how much closure should they provide? When did they not provide enough? What are our expectations of verisimilitude for the story leading up to the end vs. the end itself? <\/p>",
      "endTime": "2018-03-11T14:45-0700",
      "hashTag": "#DisappointingFinales",
      "id": "2018050",
      "location": "Salon A/B",
      "participants": [
        {
          "id": "23",
          "type": "moderator"
        },
        {
          "id": "26",
          "type": "participant"
        },
        {
          "id": "70",
          "type": "participant"
        },
        {
          "id": "63",
          "type": "participant"
        },
        {
          "id": "83",
          "type": "participant"
        }
      ],
      "sortKey": "250",
      "startTime": "2018-03-11T13:30-0700",
      "title": "They Didn't Stick the Landing: Disappointing Finales",
      "track": "Panel",
      "type": "Panel"
    },
    {
      "alternate": false,
      "description": "<p>When we schedule for a ghostit's timing that matters the most.<\/p>",
      "endTime": "2018-03-11T14:45-0700",
      "hashTag": "#ThomasMDischMemorialPanel",
      "id": "2018051",
      "location": "Salon C",
      "participants": [
        {
          "id": "84",
          "type": "participant"
        },
        {
          "id": "31",
          "type": "participant"
        }
      ],
      "sortKey": "255",
      "startTime": "2018-03-11T13:30-0700",
      "title": "Thomas M. Disch Memorial Panel",
      "track": "",
      "type": "Panel"
    },
    {
      "alternate": false,
      "description": "<p>Every year, we encourage people to come and give us their feedback -- and this year is no different. Come tell us what went well, what didn't, what you want more of, and what you want less of!Members of the Concom will be present to hear the feedback.<\/p>",
      "endTime": "2018-03-11T16:15-0700",
      "hashTag": "#FOGcon8wrapupLetsLookatTheReviews",
      "id": "2018052",
      "location": "Salon A/B",
      "participants": [
        {
          "id": "59",
          "type": "moderator"
        },
        {
          "id": "73",
          "type": "participant"
        },
        {
          "id": "69",
          "type": "participant"
        },
        {
          "id": "27",
          "type": "participant"
        },
        {
          "id": "62",
          "type": "participant"
        }
      ],
      "sortKey": "260",
      "startTime": "2018-03-11T15:00-0700",
      "title": "FOGcon 8 wrap-up: Let's Look at The Reviews!",
      "track": "",
      "type": "Panel"
    }
  ],
  "participants": [
    {
      "bio": "<p>Laura Blackwell is Shimmer&#146;s copy editor. Her fiction has appeared in various periodicals and anthologies, including World Fantasy Award winner She Walks in Shadows. <\/p>",
      "id": "1",
      "name": {
        "display": "Laura Blackwell",
        "sort": "BLACKWELL, LAURA"
      }
    },
    {
      "bio": "<p>Anna Blumstein has degrees in urban planning and sustainable agriculture and loves to talk about nature and the built environment. She helped work behind the scenes to create the new &quot;Not a Hugo&quot; YA award. Anna has recently started writing an online urban planning advice column called Building Community <\/p>",
      "id": "2",
      "name": {
        "display": "Anna Blumstein",
        "sort": "BLUMSTEIN, ANNA"
      }
    },
    {
      "bio": "<p>Karen Brenchley has had science fiction, steampunk, and fantasy stories appear in various anthologies both alone and with her husband, Chaz Brenchley. She founded the SF in SF reading series with Terry Bisson, and edited her husband's Lambda Award-winning collection &quot;Bitter Waters&quot;. See more at her website, http://www.karenbrenchley.com.<\/p>",
      "id": "3",
      "name": {
        "display": "Karen Brenchley",
        "sort": "BRENCHLEY, KAREN"
      }
    },
    {
      "bio": "<p>Marie Brennan is the author of thirteen novels, including the <i>Memoirs of Lady Trent<\/i> series, the <i>Onyx Court<\/i> series of historical fantasies, and the urban fantasy <i>Wilder<\/i> series. She has published more than fifty short stories in venues such as <i>On Spec<\/i>, <i>Beneath Ceaseless Skies<\/i>, and the acclaimed <i>Clockwork Phoenix<\/i> anthologies. More information can be found on her website: www.swantower.com.<\/p>",
      "id": "4",
      "name": {
        "display": "Marie Brennan",
        "sort": "BRENNAN, MARIE"
      }
    },
    {
      "bio": "<p>Garrett Calcaterra is author of the epic fantasy series <i>The Dreamwielder Chronicles<\/i>, and a professional copywriter and science editor. In addition, he has taught creative writing for over a dozen years at various institutions, including the Orange County School of Arts and Chapman University.<\/p>",
      "id": "5",
      "name": {
        "display": "Garrett Calcaterra",
        "sort": "CALCATERRA, GARRETT"
      }
    },
    {
      "bio": "<p>Self-published SF/F writer, budding book cover artist, and collector of far too much music.<\/p>",
      "id": "6",
      "name": {
        "display": "Jon Chaisson",
        "sort": "CHAISSON, JON"
      }
    },
    {
      "bio": "<p>Eugene is a fledgling SFF author making his writing debut with the serialized audio drama podcast New World Sonata. His draws inspiration from classic sci-fi novels (Simmons&#146; Hyperion, Huxley&#146;s Brave New World), auteur film (Kubrick, Tarantino, Wong Kar-Wai), animation (Miyazaki, Mamoru Hosoda, Satoshi Kon, Makoto Shinkai), and Asian mythology. When he's not nightowling as a podcaster, he works in venture capital as his day job. He enjoys cooking, jogging, and playing Nintendo games to unwind.<\/p>",
      "id": "7",
      "name": {
        "display": "Eugene Chou",
        "sort": "CHOU, EUGENE"
      }
    },
    {
      "bio": "<p>Brenda W. Clough spent much of her childhood overseas, courtesy of the U.S. government. Her first fantasy novel, <i>The Crystal Crown<\/i>, was published by DAW in 1984. She has also written <i>The Dragon of Mishbil<\/i> (1985), <i>The Realm Beneath<\/i> (1986), and <i>The Name of the Sun<\/i> (1988). Her children&#146;s novel, <i>An Impossumble Summer<\/i> (1992), is set in her own house in Virginia, where she lives in a cottage at the edge of a forest.<\/p><p>Her novel <i>How Like a God<\/i>, forthcoming from BVC, was published by Tor Books in 1997, and a sequel, <i>Doors of Death and Life<\/i>, was published in May 2000. Her latest novels from Book View Cafe include <i>Revise the World<\/i> (2009) and <i>Speak to Our Desires<\/i>.<\/p>",
      "id": "8",
      "name": {
        "display": "Brenda w. Clough",
        "sort": "CLOUGH, BRENDA W."
      }
    },
    {
      "bio": "<p>Christopher Cornell is a writer of science fiction and horror, with short fiction appearing in <i>Penumbra<\/i> magazine and the <i>City of the Future<\/i> anthology, among others. He is also a co-founder of Shohola Press, a new imprint launching in early 2018, and a producer and co-host for Unreliable Narrators, a podcast about reading, writing and loving genre fiction.<\/p>",
      "id": "9",
      "name": {
        "display": "Christopher Cornell",
        "sort": "CORNELL, CHRISTOPHER"
      }
    },
    {
      "bio": "<p>Michele Cox found fandom (and filking!) in her teens and never left. Since then she has earned an MA in Theology, begun committing poetry, and taught herself technical writing.  She is a polytheistic panentheistic mystic; her favorite spec fic ranges from Pangborn through Bujold to Jemisin, and more recently Palmer and Hairston. She passes for normal among Bay Area SF fans.<\/p>",
      "id": "10",
      "name": {
        "display": "Michele Cox",
        "sort": "COX, MICHELE"
      }
    },
    {
      "bio": "<p>Garrett Croker is an SFF writer in the San Francisco Bay Area. Find his fiction on Pseudopod, the horror podcast! Outside of writing, he's been an English teacher, a digital marketer, and a copywriter.<\/p>",
      "id": "11",
      "name": {
        "display": "Garrett Croker",
        "sort": "CROKER, GARRETT"
      }
    },
    {
      "bio": "<p>Laura Davy lives in California with her husband and her cat. She wrote her first story when she was in Elementary School and, despite the fact that the plot didn&#146;t make sense, she kept on writing.  She has been published in <i>Apex<\/i>, <i>Escape Pod<\/i>, <i>Sword &amp; Sorceress 31<\/i> and others. You can learn more about her at www.lauradavy.com.<\/p>",
      "id": "12",
      "name": {
        "display": "Laura Davy",
        "sort": "DAVY, LAURA"
      }
    },
    {
      "bio": "<p>I'm a writer and a longtime fan of speculative fiction. My reviews can be found at www.fantasyliterature.com<\/p>",
      "id": "13",
      "name": {
        "display": "Marion Deeds",
        "sort": "DEEDS, MARION"
      }
    },
    {
      "bio": "<p>Been going to Fog-Con since I was 7 or 8. Now that I'm in college it's still the highlight of my year.  <\/p>",
      "id": "14",
      "name": {
        "display": "Anita Dubinko",
        "sort": "DUBINKO, ANITA"
      }
    },
    {
      "bio": "<p>Writer, solipsistic storyteller, mom, artist, geek, SFF fan, Jew, cancer survivor, ex-Faire brat, teacher, entrepreneur, ex-web designer, sociologist, feminist, foodie, freak. Overeducated, underslept. Flying my freak flag high and glad to be alive. <\/p>",
      "id": "15",
      "name": {
        "display": "Julia Dvorin",
        "sort": "DVORIN, JULIA"
      }
    },
    {
      "bio": "<p>Rebecca Gomez Farrell's debut fantasy novel, <i>Wings Unseen<\/i>, came out from Meerkat Press in 2017. Her speculative fiction short stories have appeared in several magazines and anthologies including <i>Beneath Ceaseless Skies<\/i>, <i>Dark Luminous Wings<\/i>, and the <i>Future Fire<\/i>.  Her food, drink, and travel writing can primarily be found at her blog, theGourmez.com, and yes, she has opinions about candied bacon. Find all her creative work at her author website: RebeccaGomezFarrell.com.<\/p>",
      "id": "16",
      "name": {
        "display": "Rebecca Gomez Farrell",
        "sort": "FARRELL, REBECCA GOMEZ"
      }
    },
    {
      "bio": "<p>Valerie Estelle Frankel is the author of 20 books on Doctor Who, Game of Thrones, Sherlock, Buffy, pop culture and the heroine's journey. vefrankel.com<\/p>",
      "id": "17",
      "name": {
        "display": "Valerie Estelle Frankel",
        "sort": "FRANKEL, VALERIE ESTELLE"
      }
    },
    {
      "bio": "<p>Liz Demi Green is a writer, performer, and community college professor at Los Medanos College.  She has been published frequently in The Body is Not an Apology, as well as in Sinister Wisdom, Sparkle and Blink, Foglifter, truth-out.org, and others.  She performs often at Bay Area reading series and is a poetry slam champion.  She is seeking a publisher or representation for her first novel, a work of YA LGBTQ+ Sci Fi called <i>Eleven Eleven<\/i>.<\/p>",
      "id": "18",
      "name": {
        "display": "Liz Demi Green",
        "sort": "GREEN, LIZ DEMI"
      }
    },
    {
      "bio": "<p>Born In St. Petersburg, Russia. Moved to the USA in 1989 at the age of 19. Received Ph.D. in Mathematics from the University of Chicago. Worked in financial markets in New York. Recently retired from Wall Street and live in Sausalito, California, focusing on writing SF/F.<\/p>",
      "id": "19",
      "name": {
        "display": "Alex Gurevich",
        "sort": "GUREVICH, ALEX"
      }
    },
    {
      "bio": "<p>Ian K. Hagemann is a mixed-race fan and writer in Seattle. He helped start Potlatch and the Carl Brandon Society, and is currently doing and leading personal work with The Mankind Project and Inward Journey.  He has published several articles in <i>The WisCon Chronicles<\/i>, most recently one on emotions and oppression.  He is currently a first-year day student in the Masters in Social Work program at the University of Washington.<\/p>",
      "id": "20",
      "name": {
        "display": "Ian K. Hagemann",
        "sort": "HAGEMANN, IAN K."
      }
    },
    {
      "bio": "<p>Andrea Hairston is a novelist, essayist, playwright, and the Artistic Director of Chrysalis Theatre. Her plays have been produced at Yale Rep, Rites and Reason, the Kennedy Center, StageWest, and on Public Radio and Television. She has translated plays by Michael Ende and Kaca Celan from German to English. Ms. Hairston has received many playwriting and directing awards, including a National Endowment for the Arts Grant to Playwrights, a Rockefeller/NEA Grant for New Works, an NEA grant to work as dramaturge/director with playwright Pearl Cleage, a Ford Foundation Grant to collaborate with Senegalese Master Drummer Massamba Diop, and a Shubert Fellowship for Playwriting. Since 1997, her plays produced by Chrysalis Theatre, Soul Repairs, Lonely Stardust, Hummingbird Flying Backward, and Dispatches have been science fiction plays. <i>Archangels of Funk<\/i>, a sci-fi theatre jam, garnered her a Massachusetts Cultural Council Fellowship for 2003.<\/p><p>Ms. Hairston&#146;s novels include: <i>Redwood and Wildfire<\/i>, winner of the 2011 Tiptree Award and the Carl Brandon Kindred Award and Mindscape, shortlisted for the Phillip K Dick and Tiptree Awards, and winner of the Carl Brandon Parallax Award. Both novels were published by Aqueduct Press.<\/p><p>In her spare time she is the Louise Wolff Kahn 1931 Professor of Theatre and Afro-American Studies at Smith College. She has received the International Association of the Fantastic in the Arts Distinguished Scholarship Award for outstanding contributions to the criticism of the fantastic.<\/p><p><i>Lonely Stardust<\/i>, a collection of essays and plays, was published by Aqueduct Press in 2014. Her latest play, Thunderbird at the Next World Theatre, was published in Geek Theater&#151;an anthology of science fiction and fantasy plays in 2014 by Underwords Press.<\/p><p>She bikes at night year round, meeting bears, multi-legged creatures of light and breath, and the occasional shooting star.<\/p>",
      "id": "4237",
      "name": {
        "display": "Andrea Hairston",
        "sort": "HAIRSTON, ANDREA"
      }
    },
    {
      "bio": "<p>Jed Hartman is a technical writer and former <i>Strange Horizons<\/i> fiction editor whose extracurricular interests include logodaedaly, interdigitation, sesquipedalia, and lapsus linguae. His fiction and nonfiction have appeared in <i>All-Star Zeppelin Adventure Stories<\/i>, <i>Clean Sheets<\/i>, <i>Fishnet<\/i>, <i>Flytrap<\/i>, <i>Strange Horizons<\/i>, and <i>Wet<\/i>.  For more about him (or to read his blog), see his website: http://www.kith.org/logos.<\/p>",
      "id": "22",
      "name": {
        "display": "Jed Hartman",
        "sort": "HARTMAN, JED"
      }
    },
    {
      "bio": "<p>Sheryl R. Hayes can be found untangling plot threads or the yarn her three cats have been playing with. In addition to writing, she is a cosplayer focusing on knit and crochet costumes and works full time at a Bay Area water company. You can follow her blog at http://www.sherylrhayes.com, on Twitter at https://www.twitter.com/sherylrhayes, or on Facebook&nbsp;at https://www.facebook.com/sherylrhayes<\/p>",
      "id": "23",
      "name": {
        "display": "Sheryl R. Hayes",
        "sort": "HAYES, SHERYL R."
      }
    },
    {
      "bio": "<p>Crystal Huff spends her time saving the world, chasing down conventioneers, and editing SF from China. She was convention chair of Arisia 2011, Relaxacon 2011, Readercon 23, Readercon 24, Readercon 25, and co-chair of JOFcon I and Worldcon 75 in Helsinki, Finland. Crystal's day job involves fighting the kyriarchy, as well. Alignment: Chaotic Good. <\/p>",
      "id": "24",
      "name": {
        "display": "Crystal M. Huff",
        "sort": "HUFF, CRYSTAL M."
      }
    },
    {
      "bio": "<p>Middle aged woman working on the Open Web. Enjoys coffee, JavaScript, power pop, and hockey.<\/p>",
      "id": "25",
      "name": {
        "display": "Emma Humphries",
        "sort": "HUMPHRIES, EMMA"
      }
    },
    {
      "bio": "<p>Emily Jiang is the author of <i>Summoning the Phoenix: Poems &amp; Prose about Chinese Musical Instruments<\/i>, which was listed among The Best Children&#146;s Books of the Year at Kirkus Reviews and The Huffington Post and won The Best Book Award from the Chinese American Librarian Association.  Emily holds an MFA in Creative Writing from Saint Mary&#146;s College of California and a BA in English from Rice University.  She is also a graduate of the Clarion Writers&#146; Workshop. <\/p>",
      "id": "26",
      "name": {
        "display": "Emily Jiang",
        "sort": "JIANG, EMILY"
      }
    },
    {
      "bio": "<p>Fan of vintage computing and all things 8-bit, Micah is the coordinator of FOGcon game room programming.<\/p><p>His debut novel <i>Broken Tablet<\/i> came out in 2016. He graduated from Viable Paradise during John Scalzi's last year teaching the workshop. An anthology of his short works about famous scientists and their ideas can be downloaded from micahjoel.info/geeks for free.<\/p><p>His 8-bit novel <i>Level UP<\/i> is coming in spring 2018. If you're excited about the Ready Player One movie, let's talk!<\/p>",
      "id": "27",
      "name": {
        "display": "Micah Joel",
        "sort": "JOEL, MICAH"
      }
    },
    {
      "bio": "<p>L.S. Johnson lives in Northern California and feeds her cats by indexing books. Her fiction has appeared in <i>Strange Horizons<\/i>, <i>Interzone<\/i>, <i>Year's Best Weird Fiction<\/i>, and other venues. Her self-published collection, <i>Vacui Magia: Stories<\/i>, won the 2016 North Street Book Prize and was a finalist for the World Fantasy Award. <i>Leviathan<\/i>, the sequel to her novella <i>Harkworth Hall<\/i>, will be out in late spring 2018.<\/p>",
      "id": "28",
      "name": {
        "display": "L.S. Johnson",
        "sort": "JOHNSON, L.S."
      }
    },
    {
      "bio": "<p>Heather Rose Jones is writing a historic fantasy series with swordswomen and magic set in the alternate-Regency-era country of Alpennia. She blogs about research into lesbian-like motifs in history and literature at the Lesbian Historic Motif Project  and writes both historical and fantasy fiction based on that research. She has a PhD in linguistics, studying metaphor theory and the semantics of Medieval Welsh prepositions, and works as an industrial failure investigator.<\/p>",
      "id": "29",
      "name": {
        "display": "Heather Rose Jones",
        "sort": "JONES, HEATHER ROSE"
      }
    },
    {
      "bio": "<p>Vylar Kaftan has published about four dozen stories in places like <i>Clarkesworld<\/i>, <i>Lightspeed<\/i>, and <i>Asimov<\/i>'s.  Most recently she published an alternate history novella in <i>Asimov<\/i>'s, &quot;The Weight of the Sunrise,&quot; in which the Incan Empire survives into the 19th century.  She was nominated for a Nebula in 2011 for her short story &quot;I'm Alive, I Love You, I'll See You in Reno&quot;.  She blogs at www.vylarkaftan.net.<\/p>",
      "id": "30",
      "name": {
        "display": "Vylar Kaftan",
        "sort": "KAFTAN, VYLAR"
      }
    },
    {
      "bio": "<p>Lynn Alden Kendall grew up in the backwoods, reading everything she could get her hands on, from Reader&#146;s Digest Condensed Books to &#147;When It Changed&#148; by Joanna Russ. Her work has appeared in <i>American Writing<\/i> and <i>80! Memories and Reflections on Ursula K. Le Guin<\/i>. Under various pen names, she has published a novel, a collection of short stories, and four nonfiction books. At her house, the cat-to-lap ratio is greater than 1 and the book-to-human ratio hovers around 5000:1.<\/p>",
      "id": "31",
      "name": {
        "display": "Lynn Alden Kendall",
        "sort": "KENDALL, LYNN ALDEN"
      }
    },
    {
      "bio": "<p>Katharine Kerr lives in the San Francisco Bay Area with her husband, his caregiver, and several cats. She's the author of the <i>Deverry<\/i> series of epic fantasy and the <i>Nola O'Grady<\/i> series of light-hearted urban fantasy novels.<\/p>",
      "id": "32",
      "name": {
        "display": "Katharine Kerr",
        "sort": "KERR, KATHARINE"
      }
    },
    {
      "bio": "<p>KJ is an underemployed librarian, lifelong reader, avid gamer and active fan. She journals and publishes fanfiction under the handle &quot;owlmoose&quot;, and is a contributing editor to the Hugo-winning group blog Lady Business. The first FogCon was also the first con KJ ever attended, and she is happy to have become a regular. Her other hobbies include singing, travel, and eating at interesting restaurants. She lives the cliche in San Francisco with her husband and cat.<\/p>",
      "id": "33",
      "name": {
        "display": "KJ",
        "sort": "KJ"
      }
    },
    {
      "bio": "<p>Ellen Klages is the author of two acclaimed YA novels: <i>The Green Glass Sea<\/i>, which won the Scott O&#146;Dell Award, the New Mexico Book Award, and the Lopez Award; and <i>White Sands, Red Menace<\/i>, which won the California and New Mexico Book Awards. Her short stories have been have been translated into Czech, French, German, Hungarian, Japanese, and Swedish and have been nominated for the Nebula Award, the Hugo, World Fantasy, and Campbell awards. Her story, &#147;Basement Magic,&#148; won a Nebula in 2005. She lives in San Francisco, in a small house full of strange and wondrous things. Her most recent story, &quot;Caligo Lane,&quot; can be read online at: http://subterraneanpress.com/magazine/winter_2014.<\/p>",
      "id": "34",
      "name": {
        "display": "Ellen Klages",
        "sort": "KLAGES, ELLEN"
      }
    },
    {
      "bio": "<p>Bradford Lyau has been a program participant for over 25 years.  After teaching at universities in California and Europe, he now works for start-up companies and is also a political consultant.  He publishes academic articles on American, British, and European SF.  His book-length study, analyzing French popular science fiction, has been published by McFarland and Company:  The Anticipation Novelists of 1950s French Science Fiction:  <i>Stepchildren of Voltaire<\/i>.<\/p>",
      "id": "35",
      "name": {
        "display": "Bradford Lyau",
        "sort": "LYAU, BRADFORD"
      }
    },
    {
      "bio": "<p>Daniel Marcus is the author of two novels and many short stories.  Salon.com described his short story collection, &quot;Binding Energy,&quot; as &quot;a cross between Raymond Carver and William Gibson.&quot;  Recent publications include &quot;Bright Moment&quot; (<i>F&amp;SF<\/i>, Sep/Oct 2011),  &quot;After the Funeral&quot; (<i>F&amp;SF<\/i>, Sep/Oct 2013), and &quot;Albion Upon the Rock (<i>F&amp;SF<\/i>, Mar/Apr 2014).<\/p>",
      "id": "36",
      "name": {
        "display": "Daniel Marcus",
        "sort": "MARCUS, DANIEL"
      }
    },
    {
      "bio": "<p>E.M. Markoff is a Latinx writer who was raised on a steady diet of Mexican folklore, anime, Roger Corman&#146;s Edgar Allan Poe films, and unrestricted access to comics and books. Growing up, she spent many days exploring her hometown cemetery, where her love of all things dark began. <\/p><p>Upon coming of age, she decided to pursue a career as a microbiologist, where she spent a few years channeling her inner mad scientist. Her debut novel, <i>The Deadbringer<\/i>, is the first book in <i>The Ellderet Series<\/i> and won a Finalist medal in the Fantasy category in the 2017 Next Generation Indie Book Awards.<\/p><p>She is a member of the Horror Writers Association.<\/p><p>Currently, with the aid of her feline companion, she is working on the sequel to <i>The Deadbringer<\/i>.<\/p><p>You can connect with her on Facebook, Instagram, and Twitter @tomesandcoffee<\/p>",
      "id": "37",
      "name": {
        "display": "E.M. Markoff",
        "sort": "MARKOFF, E.M."
      }
    },
    {
      "bio": "<p>Heather McDougal is a writer and educator living in Northern California. She is a Writer of the Future winner and a Viable Paradise alumna. Her fiction has appeared in anthologies and magazines since then, and she is known for creating the Cabinet of Wonders blog.  She is Art Director for <i>Strange Horizons<\/i>, and considers connecting artists and writers to be one of her favorite activities.  <i>Songs for a Machine Age<\/i>, her clockpunk adventure novel, came out in 2012 from Hadley Rille Books.<\/p>",
      "id": "38",
      "name": {
        "display": "Heather McDougal",
        "sort": "MCDOUGAL, HEATHER"
      }
    },
    {
      "bio": "<p>Theresa never knows what to put in these bio slots.<\/p>",
      "id": "39",
      "name": {
        "display": "Theresa Mecklenborg",
        "sort": "MECKLENBORG, THERESA"
      }
    },
    {
      "bio": "<p>Mary Anne Mohanraj wrote <i>Bodies in Motion<\/i> (a finalist for the Asian American Book Awards, translated into six languages) and nine other titles. Mohanraj founded the Hugo-nominated magazine, <i>Strange Horizons<\/i>, and was Guest of Honor at WisCon 2010.  She has taught at Clarion and is Clinical Assistant Professor of fiction and literature at the Univ. of Illinois.  She serves as Executive Director of the Speculative Literature Foundation (www.speclit.org).  Mohanraj&#146;s newest book is <i>The Stars Change<\/i>.<\/p>",
      "id": "40",
      "name": {
        "display": "Mary Anne Mohanraj",
        "sort": "MOHANRAJ, MARY ANNE"
      }
    },
    {
      "bio": "<p>Nancy Jane Moore's science fiction novel <i>The Weave<\/i> came out in 2015 from Aqueduct Press. She is also a member of the publishing co-op Book View Cafe, writes science fiction and fantasy, and is a fourth degree black belt in Aikido. Her other books include <i>Changeling<\/i>, <i>Conscientious Inconsistencies<\/i>, and <i>Walking Contradiction and Other Futures<\/i>.<\/p>",
      "id": "41",
      "name": {
        "display": "Nancy Jane Moore",
        "sort": "MOORE, NANCY JANE"
      }
    },
    {
      "bio": "<p>Tina LeCount Myers is a writer, artist, independent historian, and surfer. Born in Mexico to expat-bohemian parents, she grew up on Southern California tennis courts with a prophecy hanging over her head; her parents hoped she&#146;d one day be an author. Tina is a member of the Western Association of Women Historians, The Castro Writers' Cooperative, and a guest instructor for the Young Writers' Workshop at 826 Valencia. The Song of All (Night Shade Books) is her debut novel.<\/p>",
      "id": "42",
      "name": {
        "display": "Tina LeCount Myers",
        "sort": "MYERS, TINA LECOUNT"
      }
    },
    {
      "bio": "<p>Rocket scientist, track cycling race announcer &amp; mustache competitor.<\/p>",
      "id": "43",
      "name": {
        "display": "Alfred Nash",
        "sort": "NASH, ALFRED"
      }
    },
    {
      "bio": "<p>College Student &amp; Science Fiction Writer<\/p>",
      "id": "44",
      "name": {
        "display": "Zachariah Ronan Nash",
        "sort": "NASH, ZACHARIAH RONAN"
      }
    },
    {
      "bio": "<p>I have been at various times a science fiction editor, book reviewer, bookstore owner, convention organizer, fanzine publisher, award administrator and more. I blog at Body Impolitic with Laurie Toby Edison. Since November 2016, we have focused on issues of resistance and response to the authoritarian American government. I also work with Strike Debt Bay Area and Friends of the Public Bank of Oakland. I work as a contracts manager for a medium-sized publishing company in its San Francisco office<\/p>",
      "id": "45",
      "name": {
        "display": "Debbie Notkin",
        "sort": "NOTKIN, DEBBIE"
      }
    },
    {
      "bio": "<p>Ada Palmer&#146;s first science fiction novels <i>Too Like the Lightning<\/i> and <i>Seven Surrenders<\/i> (volumes one and two of Terra Ignota, from Tor Books) explore how humanity&#146;s cultural and historical legacies might evolve in a future of borderless nations and globally commixing populations. She teaches in the University of Chicago History Department, studying the Renaissance, Enlightenment, classical reception, the history of books, publication and reading, and the history of philosophy, heresy, science and atheism, and is the author of <i>Reading Lucretius in the Renaissance<\/i> (Harvard University Press). She often researches in Italy, usually in Florence or at the Vatican. She composes fantasy, SF and mythology-themed music, including the Viking mythology musical stage play Sundown: Whispers of Ragnarok (available on CD and DVD), and often performs at conventions with her vocal group Sassafrass. She also researches anime/manga, especially Osamu Tezuka, early post-WWII manga and gender in manga, and has worked as a consultant for many anime and manga publishers. She blogs for Tor.com, and writes the philosophy &amp; travel blog ExUrbe.com.<\/p>",
      "id": "4238",
      "name": {
        "display": "Ada Palmer",
        "sort": "PALMER, ADA"
      }
    },
    {
      "bio": "<p>Laura Pearlman is an ordinary human who lives with two ordinary felines. Her short fiction has been published in <i>Shimmer<\/i>, <i>Flash Fiction Online<\/i>, and <i>Daily Science Fiction<\/i>, among other places. Her LOLcat captions have been published on McSweeney&#146;s. She slushes at Escape Pod. She has a tragically neglected blog called Unlikely Explanations and can be found on twitter at @laurasbadideas.<\/p>",
      "id": "47",
      "name": {
        "display": "Laura Pearlman",
        "sort": "PEARLMAN, LAURA"
      }
    },
    {
      "bio": "<p>Sasha Pixlee's cat is adorable and his name is Henry. <\/p>",
      "id": "48",
      "name": {
        "display": "Sasha Pixlee",
        "sort": "PIXLEE, SASHA"
      }
    },
    {
      "bio": "<p>Author of the <i>Freelance Familiars Series<\/i>.  Vascular Biologist. Strangely sane.<\/p>",
      "id": "49",
      "name": {
        "display": "Daniel Potter",
        "sort": "POTTER, DANIEL"
      }
    },
    {
      "id": "50",
      "name": {
        "display": "Mistress Lorelei Powers",
        "sort": "POWERS, MISTRESS LORELEI"
      }
    },
    {
      "bio": "<p>System administrator. That's all. <\/p>",
      "id": "51",
      "name": {
        "display": "Shannon Prickett",
        "sort": "PRICKETT, SHANNON"
      }
    },
    {
      "bio": "<p>Andr&eacute;s Santiago P&eacute;rez-Bergquist is a recovering roboticist, father, amateur author, game designer, lapsed mathematician, and Unicode support test case.  He currently works on creating the Star Trek future, which you will find both creepy and awesome, and there is a 4% chance his software is in your pocket.  Writing real stories is hard, so instead he posts microfiction on his website.<\/p>",
      "id": "52",
      "name": {
        "display": "Andr\u00e9s Santiago P\u00e9rez-Bergquist",
        "sort": "P\u00c9REZ-BERGQUIST, ANDR\u00c9S SANTIAGO"
      }
    },
    {
      "bio": "<p>Writer and software engineer.<\/p>",
      "id": "53",
      "name": {
        "display": "Caroline Ratajski",
        "sort": "RATAJSKI, CAROLINE"
      }
    },
    {
      "bio": "<p>Loren Rhoads is the author of <i>The Dangerous Type<\/i>, <i>Kill By Numbers<\/i>, and <i>No More Heroes<\/i>. She is also the author of the nonfiction guide 199 Cemeteries To See Before You Die.<\/p>",
      "id": "54",
      "name": {
        "display": "Loren Rhoads",
        "sort": "RHOADS, LOREN"
      }
    },
    {
      "bio": "<p>A California native, Andrew is the unlikely descendent of pirates, pilgrims and Portuguese fishermen. His genre of choice is traditional fantasy, but he also enjoys writing magical realism and science fiction. <\/p><p>He has sold his stories and poetry to <i>The Spark Anthology<\/i> and <i>Bourbon Penn Magazine<\/i>, and is a Third Place Winner of The Writers Of The Future Contest.<\/p><p>Andrew's  current book project is a story of spirit possession and murder set in seventeenth century Japan.<\/p>",
      "id": "55",
      "name": {
        "display": "Andrew Roberts",
        "sort": "ROBERTS, ANDREW"
      }
    },
    {
      "bio": "<p>Madeleine Robins is the author of 11 novels, including three Sarah Tolerance alternate Regency-noir mysteries: <i>Point of Honour<\/i>, <i>Petty Treason<\/i>, and <i>The Sleeping Partner<\/i>; and <i>Sold for Endless Rue<\/i>, a retelling of Rapunzel in a medieval setting.  She lives in San Francisco.<\/p>",
      "id": "56",
      "name": {
        "display": "Madeleine E. Robins",
        "sort": "ROBINS, MADELEINE E."
      }
    },
    {
      "bio": "<p>Thomas S. Roche is an author of science fiction, fantasy, horror, crime fiction, nonfiction, and erotica. His first novel <i>The Panama Laugh<\/i> was a finalist for the Bram Stoker Award from the Horror Writers of America. A prolific film and book reviewer, he can be found at http://thomasroche.com, http://facebook.com/skidroche, http://twitter.com/thomasroche, http://goodreads.com/thomasroche and http://letterboxd.com/thomasroche.<\/p>",
      "id": "57",
      "name": {
        "display": "Thomas S. Roche",
        "sort": "ROCHE, THOMAS S."
      }
    },
    {
      "bio": "<p>A horror fan from birth, Chadwick H. Saxelid loves surrounding himself with books, movies, film soundtracks, horror themed collectibles, and cats.<\/p>",
      "id": "58",
      "name": {
        "display": "Chadwick H. Saxelid",
        "sort": "SAXELID, CHADWICK H."
      }
    },
    {
      "bio": "<p>Steven Schwartz is a writer of spec fic, smut, and poetry both formal and informal, a letterpress printer, and a firm believer in experimenting with programming.  <\/p>",
      "id": "59",
      "name": {
        "display": "Steven Schwartz",
        "sort": "SCHWARTZ, STEVEN"
      }
    },
    {
      "bio": "<p>Caitlin Seal is a YA Fantasy writer and compulsive reader living in the Bay Area. When not gobbling up words, she GMs tabletop games, practices aikido, and hunts for portals in old wardrobes. Her first novel, TWICE DEAD, will be published by Charlesbridge Teen in Fall 2018.<\/p>",
      "id": "60",
      "name": {
        "display": "Caitlin Seal",
        "sort": "SEAL, CAITLIN"
      }
    },
    {
      "bio": "<p>Effie Seiberg is a science fiction and fantasy writer from San Francisco. Her stories can be found in the &quot;Women Destroy Science Fiction!&quot; edition of <i>Lightspeed<\/i>, <i>Analog<\/i>, <i>Galaxy's Edge<\/i>, <i>PodCastle<\/i>, <i>Fireside Fiction<\/i>, and more. <\/p>",
      "id": "61",
      "name": {
        "display": "Effie Seiberg",
        "sort": "SEIBERG, EFFIE"
      }
    },
    {
      "bio": "<p>Wendy Shaffer began her literary career as the subject of her babysitter&#146;s Ph.D. thesis in child psychology. (She has  never dared read the dissertation.) These days she works as a technical writer. Wendy&#146;s poetry has appeared in <i>Strange Horizons<\/i> and short fiction has appeared in <i>Paradox<\/i> and <i>Realms of Fantasy<\/i>. Her current ambitions are to run a half marathon and watch every episode of Doctor Who in existence. (Not concurrently, alas.)<\/p>",
      "id": "62",
      "name": {
        "display": "Wendy A. Shaffer",
        "sort": "SHAFFER, WENDY A."
      }
    },
    {
      "bio": "<p>Author of <i>The Sorcery Within<\/i> and other novels. Short fiction in venues such as <i>Asimov's SF<\/i>, <i>F&amp;SF<\/i>, <i>Realms of Fantasy<\/i>, <i>Sword &amp; Sorceress<\/i>.<\/p>",
      "id": "63",
      "name": {
        "display": "Dave Smeds",
        "sort": "SMEDS, DAVE"
      }
    },
    {
      "bio": "<p>Author Melissa Snark lives in the San Francisco bay area with her husband, three children, and a glaring of litigious felines. She reads and writes fantasy and romance, and is published with The Wild Rose Press &amp; Nordic Lights Press. She is a coffeeoholic, chocoholic, and a serious geek girl. Her <i>Loki&#146;s Wolves<\/i> series stems from her fascination with wolves and mythology.<\/p>",
      "id": "64",
      "name": {
        "display": "Melissa Snark",
        "sort": "SNARK, MELISSA"
      }
    },
    {
      "bio": "<p>I've been active in SF fandom since the late 70's. Chaired a few Potlatchs and a couple FOGcons. I have a BA in Dramatic Arts from UC Berkeley, I may be the only Beckett/Heinlein fan in existence. I'm an Independent Living, lefty advocate. I wish I could read faster and write more. I still want to drive the first power wheelchair on the Moon (or Mars, I'm not picky.)<\/p>",
      "id": "65",
      "name": {
        "display": "Guy W. Thomas",
        "sort": "THOMAS, GUY W."
      }
    },
    {
      "bio": "<p>Five-time Hugo Award winner Lynne M. Thomas is the Co-Editor-in-Chief and Publisher of <i>Uncanny Magazine<\/i> with her husband Michael Damian Thomas. She moderated the Hugo-Award winning SF Squeecast and contributes to the Verity! Podcast.  In her day job, she is the Head of the Rare Books and Manuscript Library at the University of Illinois at Urbana-Champaign.<\/p>",
      "id": "66",
      "name": {
        "display": "Lynne M. Thomas",
        "sort": "THOMAS, LYNNE M."
      }
    },
    {
      "bio": "<p>I review books for Fantasy Literature (http://www.fantasyliterature.com) and Like Fire (http://www.openlettersmonthly.com/likefire/).  I'm an attorney, but would rather spend my time reading.<\/p>",
      "id": "67",
      "name": {
        "display": "Terry Weyna",
        "sort": "WEYNA, TERRY"
      }
    },
    {
      "id": "68",
      "name": {
        "display": "Earl T. Roske",
        "sort": "ROSKE, EARL T."
      }
    },
    {
      "id": "69",
      "name": {
        "display": "Eva Jane Folsom",
        "sort": "FOLSOM, EVA JANE"
      }
    },
    {
      "id": "70",
      "name": {
        "display": "Dominica Phetteplace",
        "sort": "PHETTEPLACE, DOMINICA"
      }
    },
    {
      "id": "71",
      "name": {
        "display": "Keyan Bowes",
        "sort": "BOWES, KEYAN"
      }
    },
    {
      "id": "72",
      "name": {
        "display": "Daniel Starr",
        "sort": "STARR, DANIEL"
      }
    },
    {
      "id": "73",
      "name": {
        "display": "Elsa",
        "sort": "ELSA"
      }
    },
    {
      "id": "74",
      "name": {
        "display": "Sarah Grey",
        "sort": "GREY, SARAH"
      }
    },
    {
      "id": "75",
      "name": {
        "display": "E. A. Foley",
        "sort": "FOLEY, E. A."
      }
    },
    {
      "id": "76",
      "name": {
        "display": "Steve brady",
        "sort": "BRADY, STEVE"
      }
    },
    {
      "id": "77",
      "name": {
        "display": "Montse Cordero",
        "sort": "CORDERO, MONTSE"
      }
    },
    {
      "id": "78",
      "name": {
        "display": "Nabil Hijazi",
        "sort": "HIJAZI, NABIL"
      }
    },
    {
      "id": "79",
      "name": {
        "display": "Anne Leonard",
        "sort": "LEONARD, ANNE"
      }
    },
    {
      "id": "80",
      "name": {
        "display": "Richard S. Crawford",
        "sort": "CRAWFORD, RICHARD S."
      }
    },
    {
      "id": "81",
      "name": {
        "display": "metaphortunate",
        "sort": "METAPHORTUNATE"
      }
    },
    {
      "id": "82",
      "name": {
        "display": "Naamen Gobert Tilahun",
        "sort": "TILAHUN, NAAMEN GOBERT"
      }
    },
    {
      "id": "83",
      "name": {
        "display": "Blackfeather Tanfur",
        "sort": "TANFUR, BLACKFEATHER"
      }
    },
    {
      "id": "84",
      "name": {
        "display": "Eli Bishop",
        "sort": "BISHOP, ELI"
      }
    }
  ]
}}