{
    "locations": [
            { "id": "1", "name": "Salon A/B", "thumbnail": "marriottSalonAB.png" },
            { "id": "2", "name": "Salon C", "thumbnail": "marriottSalonC.png"},
            { "id": "3", "name": "Salon D/E" },
            { "id": "4", "name": "Salon F", "thumbnail": "marriottSalonF.png" },
            { "id": "5", "name": "Sacramento", "thumbnail": "marriottSacramento.png" },
            { "id": "6", "name": "San Jose", "thumbnail": "marriottSanJose.png" },
            { "id": "7", "name": "Santa Rosa", "thumbnail": "marriottSantaRosa.png" },
            { "id": "8", "name": "Santa Monica" },
            { "id": "9", "name": "TBA" },
            { "id": "10", "name": "Contra Costa Ballroom" },
            { "id": "11", "name": "Registration" },
            { "id": "12", "name": "Con Suite" },
            { "id": "13", "name": "Dealer's Room" }
        ],
    "groups": [ ]
    
}
